{
    "headline": "Cinema Rudi",
    "menu": [
        {
            "label": "Филм"
        },
        {
            "type": "separator"
        },
        {
            "icon": "home",
            "label": "Menu Item With Icon"
        },
        {
            "icon": "person",
            "label": "Menu Item With Icon & Extension Label",
            "extensionLabel": "123"
        },
        {
            "icon": "star",
            "label": "Menu Item With Icon & Extension Icon",
            "extensionIcon": "music-note"
        },
        {
            "type": "separator",
            "label": "Separator With Label"
        },
        {
            "label": "Menu Item With Background",
            "background": "http://msx.benzac.de/img/bg1.jpg"
        },
        {
            "label": "Menu Item With Data Link",
            "data": {
                "type": "pages",
                "headline": "Videos",
                "template": {
                    "tag": "Web",
                    "type": "separate",
                    "layout": "0,0,2,4",
                    "icon": "msx-white-soft:movie",
                    "color": "msx-glass"
                },
                "items": [
                    {
                        "title": "Камери",
                        "playerLabel": "Камери",
                        "action": "video:http://192.168.1.112:81/cam"
                    },
                    {
                        "title": "Video 2",
                        "playerLabel": "Video 2",
                        "action": "video:http://msx.benzac.de/media/video2.mp4"
                    },
                    {
                        "title": "Video 3",
                        "playerLabel": "Video 3",
                        "action": "video:http://msx.benzac.de/media/video3.mp4"
                    }
                ]
            }
        },
        {
            "label": "Menu Item With Data Object",
            "data": {
                "pages": [
                    {
                        "items": [
                            {
                                "layout": "0,0,12,6",
                                "color": "msx-glass",
                                "headline": "Content Placeholder",
                                "text": "This is just a placeholder."
                            }
                        ]
                    }
                ]
            }
        }
    ]
}
